{
  "choices": [
    {
      "id": "1",
      "title": "beach",
      "image": "pane0.jpg"
    },
    {
      "id": "2",
      "title": "beach",
      "image": "pane1.jpg"
    },
    {
      "id": "3",
      "title": "place",
      "image": "pane2.jpg"
    },
    {
      "id": "4",
      "title": "road",
      "image": "pane3.jpg"
    },
    {
      "id": "5",
      "title": "park",
      "image": "pane4.jpg"
    }
  ]
}